<svg width="16" height="16" viewBox="0 0 16 16" fill="none" xmlns="http://www.w3.org/2000/svg">
<rect x="4" y="7" width="8" height="1" fill="#00A0F2"/>
<rect x="8.5" y="3.5" width="8" height="1" transform="rotate(90 8.5 3.5)" fill="#00A0F2"/>
</svg>
