<svg width="24" height="24" viewBox="0 0 24 24" fill="none" xmlns="http://www.w3.org/2000/svg">
<g clip-path="url(#clip0_7011_15722)">
<path d="M7.41 15.41L12 10.83L16.59 15.41L18 14L12 8L6 14L7.41 15.41Z" fill="#AEB6C2"/>
</g>
<defs>
<clipPath id="clip0_7011_15722">
<rect width="24" height="24" fill="white"/>
</clipPath>
</defs>
</svg>
