<svg width="16" height="12" viewBox="0 0 16 12" fill="none" xmlns="http://www.w3.org/2000/svg">
<path d="M15 6L1 6M1 6L6 11M1 6L6 1" stroke="#00A0F2" stroke-width="2" stroke-linecap="round" stroke-linejoin="round"/>
</svg>
